Metodos lineales mixtos
…
Comparación de medias

por grupo:

POTATO %>%
  group_by(riego, geno) %>%
  summarise(
    n = n(),
    media = mean(twue, na.rm = TRUE),
    desv_est = sd(twue, na.rm = TRUE),
    error_est = sd(twue, na.rm = TRUE) / sqrt(n()),
    .groups = "drop"
  )

# A tibble: 30 × 6
   riego    geno      n media desv_est error_est
   <chr>    <chr> <int> <dbl>    <dbl>     <dbl>
 1 irrigado G01       5  4.31    0.484     0.216
 2 irrigado G02       5  4.01    0.620     0.277
 3 irrigado G03       5  6.73    1.15      0.516
 4 irrigado G04       5  5.52    1.50      0.671
 5 irrigado G05       5  5.35    0.732     0.327
 6 irrigado G06       5  2.11    0.751     0.336
 7 irrigado G07       5  6.53    1.12      0.502
 8 irrigado G08       5  3.77    0.483     0.216
 9 irrigado G09       5  6.13    0.954     0.427
10 irrigado G10       5  5.07    1.13      0.505
# ℹ 20 more rows
…
library(tidyverse)

# Medias por grupo
POTATO %>%
  group_by(riego, geno) %>%
  summarise(
    n = n(),
    media = mean(twue, na.rm = TRUE),
    desv_est = sd(twue, na.rm = TRUE),
    error_est = sd(twue, na.rm = TRUE) / sqrt(n()),
    .groups = "drop"
  )

# A tibble: 30 × 6
   riego    geno      n media desv_est error_est
   <chr>    <chr> <int> <dbl>    <dbl>     <dbl>
 1 irrigado G01       5  4.31    0.484     0.216
 2 irrigado G02       5  4.01    0.620     0.277
 3 irrigado G03       5  6.73    1.15      0.516
 4 irrigado G04       5  5.52    1.50      0.671
 5 irrigado G05       5  5.35    0.732     0.327
 6 irrigado G06       5  2.11    0.751     0.336
 7 irrigado G07       5  6.53    1.12      0.502
 8 irrigado G08       5  3.77    0.483     0.216
 9 irrigado G09       5  6.13    0.954     0.427
10 irrigado G10       5  5.07    1.13      0.505
# ℹ 20 more rows
…
